[
  {
    "_id": 101,
    "date": "2016-05-31T22:00:00.000Z",
    "duration": 1,
    "name": "buy food",
    "done": true,
    "description": "go to shop and buy some goodies"
  },
  {
    "_id": 102,
    "date": "2016-05-31T22:00:00.000Z",
    "duration": 4,
    "name": "cook",
    "done": false,
    "description": ""
  },
  {
    "_id": 103,
    "date": "2016-05-31T22:00:00.000Z",
    "duration": 5,
    "name": "take a lunch",
    "done": false,
    "description": "enjoy cooked food"
  }
]

